Relearning R
…
            %/% = integer division, dividing and then rounding down to nearest integer

            %% = mod, or just remainder

            Other functions: lead(), lag() (refers to the number that leads them or is behind them), cumsum(), cumprod(), cummin(), cummax(), cummean()

            Also ranking functions: min_rank(), row_number(), dense_rank(), percent_rank(), cume_dist(), ntile()

transmute(flights,
  dep_time,
  hour = dep_time %/% 100,
  minute = dep_time %% 100
)
#> # A tibble: 336,776 x 3
#>   dep_time  hour minute
#>      <int> <dbl>  <dbl>
#> 1      517     5     17
#> 2      533     5     33
#> 3      542     5     42
#> 4      544     5     44
#> 5      554     5     54
#> 6      554     5     54
#> # … with 336,770 more rows
…
        sum of one variable (total # of miles a certain plane flew), where wt refers to weight of the variable being counted.

          think of this as a sum of a variable based on another variable

not_cancelled %>% 
  count(tailnum, wt = distance)
#> # A tibble: 4,037 x 2
#>   tailnum      n
#>   <chr>    <dbl>
#> 1 D942DN    3418
#> 2 N0EGMQ  239143
#> 3 N10156  109664
#> 4 N102UW   25722
#> 5 N103US   24619
#> 6 N104UW   24616
#> # … with 4,031 more rows
…
